D01_AS,SRX1432648,SRR2922017
D01_AS,SRX1432648,SRR2922018
D02_AS,SRX1432649,SRR2922019
D02_AS,SRX1432649,SRR2922020
D03_AS,SRX1432650,SRR2922021
D03_AS,SRX1432650,SRR2922022
D04_AS,SRX1432651,SRR2922023
D04_AS,SRX1432651,SRR2922024
D05_AS,SRX1432652,SRR2922025
D05_AS,SRX1432652,SRR2922026
D06_AS,SRX1432653,SRR2922027
D06_AS,SRX1432653,SRR2922028
D07_AS,SRX1432654,SRR2922029
D07_AS,SRX1432654,SRR2922030
D08_AS,SRX1432655,SRR2922031
D08_AS,SRX1432655,SRR2922032
D09_AS,SRX1432656,SRR2922033
D09_AS,SRX1432656,SRR2922034
D10_AS,SRX1432657,SRR2922035
D10_AS,SRX1432657,SRR2922036
D11_AS,SRX1432658,SRR2922037
D11_AS,SRX1432658,SRR2922038
D12_AS,SRX1432659,SRR2922039
D12_AS,SRX1432659,SRR2922040
D13_AS,SRX1432660,SRR2922041
D13_AS,SRX1432660,SRR2922042
D14_AS,SRX1432661,SRR2922043
D14_AS,SRX1432661,SRR2922044
D15_AS,SRX1432662,SRR2922045
D15_AS,SRX1432662,SRR2922046
D16_AS,SRX1432663,SRR2922047
D16_AS,SRX1432663,SRR2922048
D17_AS,SRX1432664,SRR2922049
D17_AS,SRX1432664,SRR2922050
D18_AS,SRX1432665,SRR2922051
D18_AS,SRX1432665,SRR2922052
D19_AS,SRX1432666,SRR2922053
D19_AS,SRX1432666,SRR2922054
D20_AS,SRX1432667,SRR2922055
D20_AS,SRX1432667,SRR2922056
D21_AS,SRX1432668,SRR2922057
D21_AS,SRX1432668,SRR2922058
D22_AS,SRX1432669,SRR2922059
D22_AS,SRX1432669,SRR2922060
D23_AS,SRX1432670,SRR2922061
D23_AS,SRX1432670,SRR2922062
D24_AS,SRX1432671,SRR2922063
D24_AS,SRX1432671,SRR2922064
D25_AS,SRX1432672,SRR2922065
D25_AS,SRX1432672,SRR2922066
D26_AS,SRX1432673,SRR2922067
D26_AS,SRX1432673,SRR2922068
D27_AS,SRX1432674,SRR2922069
D27_AS,SRX1432674,SRR2922070
D28_AS,SRX1432675,SRR2922071
D28_AS,SRX1432675,SRR2922072
D29_AS,SRX1432676,SRR2922073
D29_AS,SRX1432676,SRR2922074
D30_AS,SRX1432677,SRR2922075
D30_AS,SRX1432677,SRR2922076
D31_AS,SRX1432678,SRR2922077
D31_AS,SRX1432678,SRR2922078
D32_AS,SRX1432679,SRR2922079
D32_AS,SRX1432679,SRR2922080
D33_AS,SRX1432680,SRR2922081
D33_AS,SRX1432680,SRR2922082
D34_AS,SRX1432681,SRR2922083
D34_AS,SRX1432681,SRR2922084
D35_AS,SRX1432682,SRR2922085
D35_AS,SRX1432682,SRR2922086
D36_AS,SRX1432683,SRR2922087
D36_AS,SRX1432683,SRR2922088
D37_AS,SRX1432684,SRR2922089
D37_AS,SRX1432684,SRR2922090
D38_AS,SRX1432685,SRR2922091
D38_AS,SRX1432685,SRR2922092
D39_AS,SRX1432686,SRR2922093
D39_AS,SRX1432686,SRR2922094
D40_AS,SRX1432687,SRR2922095
D40_AS,SRX1432687,SRR2922096
D41_AR,SRX1432688,SRR2922097
D41_AR,SRX1432688,SRR2922098
D42_AR,SRX1432689,SRR2922099
D42_AR,SRX1432689,SRR2922100
D43_AR,SRX1432690,SRR2922101
D43_AR,SRX1432690,SRR2922102
D44_AR,SRX1432691,SRR2922103
D44_AR,SRX1432691,SRR2922104
D45_AR,SRX1432692,SRR2922105
D45_AR,SRX1432692,SRR2922106
D46_AR,SRX1432693,SRR2922107
D46_AR,SRX1432693,SRR2922108
D47_AR,SRX1432694,SRR2922109
D47_AR,SRX1432694,SRR2922110
D48_AR,SRX1432695,SRR2922111
D48_AR,SRX1432695,SRR2922112
D49_AR,SRX1432696,SRR2922113
D49_AR,SRX1432696,SRR2922114
D50_AR,SRX1432697,SRR2922115
D50_AR,SRX1432697,SRR2922116
D51_AR,SRX1432698,SRR2922117
D51_AR,SRX1432698,SRR2922118
D52_AR,SRX1432699,SRR2922119
D52_AR,SRX1432699,SRR2922120
D53_AR,SRX1432700,SRR2922121
D53_AR,SRX1432700,SRR2922122
D54_AR,SRX1432701,SRR2922123
D54_AR,SRX1432701,SRR2922124
D55_AR,SRX1432702,SRR2922125
D55_AR,SRX1432702,SRR2922126
D56_AR,SRX1432703,SRR2922127
D56_AR,SRX1432703,SRR2922128
D57_AR,SRX1432704,SRR2922129
D57_AR,SRX1432704,SRR2922130
D58_AR,SRX1432705,SRR2922131
D58_AR,SRX1432705,SRR2922132
D59_AR,SRX1432706,SRR2922133
D59_AR,SRX1432706,SRR2922134
D60_AR,SRX1432707,SRR2922135
D60_AR,SRX1432707,SRR2922136
D61_AR,SRX1432708,SRR2922137
D61_AR,SRX1432708,SRR2922138
D62_AR,SRX1432709,SRR2922139
D62_AR,SRX1432709,SRR2922140
D63_AR,SRX1432710,SRR2922141
D63_AR,SRX1432710,SRR2922142
D64_AR,SRX1432711,SRR2922143
D64_AR,SRX1432711,SRR2922144
D65_AR,SRX1432712,SRR2922145
D65_AR,SRX1432712,SRR2922146
D66_HC,SRX1432713,SRR2922147
D66_HC,SRX1432713,SRR2922148
D67_HC,SRX1432714,SRR2922149
D67_HC,SRX1432714,SRR2922150
D68_HC,SRX1432715,SRR2922151
D68_HC,SRX1432715,SRR2922152
D69_HC,SRX1432716,SRR2922153
D69_HC,SRX1432716,SRR2922154
D70_HC,SRX1432717,SRR2922155
D70_HC,SRX1432717,SRR2922156
D71_HC,SRX1432718,SRR2922157
D71_HC,SRX1432718,SRR2922158
D72_HC,SRX1432719,SRR2922159
D72_HC,SRX1432719,SRR2922160
D73_HC,SRX1432720,SRR2922161
D73_HC,SRX1432720,SRR2922162
D74_HC,SRX1432721,SRR2922163
D74_HC,SRX1432721,SRR2922164
D75_HC,SRX1432722,SRR2922165
D75_HC,SRX1432722,SRR2922166
D76_HC,SRX1432723,SRR2922167
D76_HC,SRX1432723,SRR2922168
D77_HC,SRX1432724,SRR2922169
D77_HC,SRX1432724,SRR2922170
D78_HC,SRX1432725,SRR2922171
D78_HC,SRX1432725,SRR2922172
D79_HC,SRX1432726,SRR2922173
D79_HC,SRX1432726,SRR2922174
D80_HC,SRX1432727,SRR2922175
D80_HC,SRX1432727,SRR2922176
